202  | 0.015763  0.000010 | 0.016922   0.000011 | 0.016138  0.000011 |
207  | 0.015763  0.000010 | 0.016922   0.000011 | 0.016138  0.000011 |
217  | 0.015763  0.000010 | 0.016922   0.000011 | 0.016138  0.000011 |
