# Central    | FacUncert:  0.5 2.0 | RenormUncert:  0.5 2.0
201  1.294910  0.000650 | -0.011 0.002 0.007 -0.003
# Central    | FacUncert:  0.5 2.0 | RenormUncert:  0.5 2.0
203  1.199331  0.000638 | -0.011 0.002 0.007 -0.004
# Central    | FacUncert:  0.5 2.0 | RenormUncert:  0.5 2.0
210  3.300086  0.000640 | -0.012 0.002 0.006 -0.003
# Central    | FacUncert:  0.5 2.0 | RenormUncert:  0.5 2.0
204  3.300086  0.000640 | -0.012 0.002 0.006 -0.003
# Central    | FacUncert:  0.5 2.0 | RenormUncert:  0.5 2.0
211  1.377427  0.000627 | -0.011 0.002 0.008 -0.004
# Central    | FacUncert:  0.5 2.0 | RenormUncert:  0.5 2.0
205  1.377427  0.000627 | -0.011 0.002 0.008 -0.004
# Central    | FacUncert:  0.5 2.0 | RenormUncert:  0.5 2.0
206  1.294910  0.000650 | -0.011 0.002 0.007 -0.003
# Central    | FacUncert:  0.5 2.0 | RenormUncert:  0.5 2.0
209  1.199331  0.000638 | -0.011 0.002 0.007 -0.004
# Central    | FacUncert:  0.5 2.0 | RenormUncert:  0.5 2.0
216  1.294910  0.000650 | -0.011 0.002 0.007 -0.003
# Central    | FacUncert:  0.5 2.0 | RenormUncert:  0.5 2.0
218  1.199331  0.000638 | -0.011 0.002 0.007 -0.004
# Central    | FacUncert:  0.5 2.0 | RenormUncert:  0.5 2.0
219  3.300086  0.000640 | -0.012 0.002 0.006 -0.003
# Central    | FacUncert:  0.5 2.0 | RenormUncert:  0.5 2.0
220  1.377427  0.000627 | -0.011 0.002 0.008 -0.004
