# Central    | FacUncert:  0.5 2.0 | RenormUncert:  0.5 2.0
201  0.191319  0.000618 | -0.011 -0.001 0.009 -0.005
# Central    | FacUncert:  0.5 2.0 | RenormUncert:  0.5 2.0
203  0.174148  0.000611 | -0.011 -0.002 0.009 -0.006
# Central    | FacUncert:  0.5 2.0 | RenormUncert:  0.5 2.0
210  0.515346  0.000612 | -0.011 -0.001 0.009 -0.005
# Central    | FacUncert:  0.5 2.0 | RenormUncert:  0.5 2.0
204  0.515346  0.000612 | -0.011 -0.001 0.009 -0.005
# Central    | FacUncert:  0.5 2.0 | RenormUncert:  0.5 2.0
211  0.187436  0.000614 | -0.012 -0.002 0.010 -0.006
# Central    | FacUncert:  0.5 2.0 | RenormUncert:  0.5 2.0
205  0.187436  0.000614 | -0.012 -0.002 0.010 -0.006
# Central    | FacUncert:  0.5 2.0 | RenormUncert:  0.5 2.0
206  0.191319  0.000618 | -0.011 -0.001 0.009 -0.005
# Central    | FacUncert:  0.5 2.0 | RenormUncert:  0.5 2.0
209  0.174148  0.000611 | -0.011 -0.002 0.009 -0.006
# Central    | FacUncert:  0.5 2.0 | RenormUncert:  0.5 2.0
216  0.191319  0.000618 | -0.011 -0.001 0.009 -0.005
# Central    | FacUncert:  0.5 2.0 | RenormUncert:  0.5 2.0
218  0.174148  0.000611 | -0.011 -0.002 0.009 -0.006
# Central    | FacUncert:  0.5 2.0 | RenormUncert:  0.5 2.0
219  0.515346  0.000612 | -0.011 -0.001 0.009 -0.005
# Central    | FacUncert:  0.5 2.0 | RenormUncert:  0.5 2.0
220  0.187436  0.000614 | -0.012 -0.002 0.010 -0.006
