# Central    | FacUncert:  0.5 2.0 | RenormUncert:  0.5 2.0
217  0.004257  0.000597 | -0.010 -0.007 0.014 -0.008
# Central    | FacUncert:  0.5 2.0 | RenormUncert:  0.5 2.0
202  0.004257  0.000597 | -0.010 -0.007 0.014 -0.008
# Central    | FacUncert:  0.5 2.0 | RenormUncert:  0.5 2.0
207  0.004257  0.000597 | -0.010 -0.007 0.014 -0.008
